…
  else if (!is.numeric(vector)) {
    tibble(
      replace_na(vector, "virginica")
    )
  }
}

# Test the function

replace_missing_fn(pull(iris_with_missing, Sepal.Length))
```

    ## # A tibble: 150 x 1
    ##    `replace_na(vector, mean)`
    ##                         <dbl>
    ##  1                       5.1 
    ##  2                       4.9 
    ##  3                       4.7 
    ##  4                       4.6 
    ##  5                       5   
    ##  6                       5.4 
    ##  7                       5.82
    ##  8                       5   
    ##  9                       4.4 
    ## 10                       4.9 
    ## # ... with 140 more rows

``` r
# replace_missing_fn(2)

replace_missing_fn(pull(iris_with_missing, Species))
```

    ## # A tibble: 150 x 1
    ##    `replace_na(vector, "virginica")`
    ##    <chr>                            
    ##  1 setosa                           
    ##  2 setosa                           
    ##  3 setosa                           
    ##  4 setosa                           
    ##  5 setosa                           
    ##  6 setosa                           
    ##  7 setosa                           
    ##  8 setosa                           
    ##  9 setosa                           
    ## 10 setosa                           
    ## # ... with 140 more rows
…
